%YAML 1.1
%TAG !u! tag:unity3d.com,2011:
--- !u!114 &11400000
MonoBehaviour:
  m_ObjectHideFlags: 0
  m_PrefabParentObject: {fileID: 0}
  m_PrefabInternal: {fileID: 0}
  m_GameObject: {fileID: 0}
  m_Enabled: 1
  m_EditorHideFlags: 0
  m_Script: {fileID: 11500000, guid: b8706e9319f554034bfd5fb5759e9c94, type: 3}
  m_Name: PatrolScanner
  m_EditorClassIdentifier: 
  actions:
  - {fileID: 11400000, guid: d4b184ba66a2f4980ab9af87662c03db, type: 2}
  transitions:
  - decision: {fileID: 11400000, guid: 1ae5b8936d26b415199a3e14dfd8fe03, type: 2}
    trueState: {fileID: 11400000, guid: 7654b02ea196b44e2a27c9f4d6bb3f07, type: 2}
    falseState: {fileID: 11400000, guid: ad697f1de9978450dbb492b99f0b541b, type: 2}
  sceneGizmoColor: {r: 0, g: 1, b: 0.08760595, a: 1}
